{
	"tracks": {
		"href": "https://api.spotify.com/v1/search?query=track%3Arunning+up+that+hill+artist%3Akate+bush&type=track&locale=en-US%2Cen%3Bq%3D0.5&offset=0&limit=3",
		"items": [
			{
				"album": {
					"album_type": "album",
					"artists": [
						{
							"external_urls": {
								"spotify": "https://open.spotify.com/artist/1aSxMhuvixZ8h9dK9jIDwL"
							},
							"href": "https://api.spotify.com/v1/artists/1aSxMhuvixZ8h9dK9jIDwL",
							"id": "1aSxMhuvixZ8h9dK9jIDwL",
							"name": "Kate Bush",
							"type": "artist",
							"uri": "spotify:artist:1aSxMhuvixZ8h9dK9jIDwL"
						}
					],
					"available_markets": [
						"AD",
						"AE",
						"AG",
						"AL",
						"AM",
						"AO",
						"AR",
						"AT",
						"AU",
						"AZ",
						"BA",
						"BB",
						"BD",
						"BE",
						"BF",
						"BG",
						"BH",
						"BI",
						"BJ",
						"BN",
						"BO",
						"BR",
						"BS",
						"BT",
						"BW",
						"BY",
						"BZ",
						"CD",
						"CG",
						"CH",
						"CI",
						"CL",
						"CM",
						"CO",
						"CR",
						"CV",
						"CW",
						"CY",
						"CZ",
						"DE",
						"DJ",
						"DK",
						"DM",
						"DO",
						"DZ",
						"EC",
						"EE",
						"EG",
						"ES",
						"FI",
						"FJ",
						"FM",
						"FR",
						"GA",
						"GB",
						"GD",
						"GE",
						"GH",
						"GM",
						"GN",
						"GQ",
						"GR",
						"GT",
						"GW",
						"GY",
						"HK",
						"HN",
						"HR",
						"HT",
						"HU",
						"ID",
						"IE",
						"IL",
						"IN",
						"IQ",
						"IS",
						"IT",
						"JM",
						"JO",
						"JP",
						"KE",
						"KG",
						"KH",
						"KI",
						"KM",
						"KN",
						"KR",
						"KW",
						"KZ",
						"LA",
						"LB",
						"LC",
						"LI",
						"LK",
						"LR",
						"LS",
						"LT",
						"LU",
						"LV",
						"LY",
						"MA",
						"MC",
						"MD",
						"ME",
						"MG",
						"MH",
						"MK",
						"ML",
						"MN",
						"MO",
						"MR",
						"MT",
						"MU",
						"MV",
						"MW",
						"MX",
						"MY",
						"MZ",
						"NA",
						"NE",
						"NG",
						"NI",
						"NL",
						"NO",
						"NP",
						"NR",
						"NZ",
						"OM",
						"PA",
						"PE",
						"PG",
						"PH",
						"PK",
						"PL",
						"PS",
						"PT",
						"PW",
						"PY",
						"QA",
						"RO",
						"RS",
						"RW",
						"SA",
						"SB",
						"SC",
						"SE",
						"SG",
						"SI",
						"SK",
						"SL",
						"SM",
						"SN",
						"SR",
						"ST",
						"SV",
						"SZ",
						"TD",
						"TG",
						"TH",
						"TJ",
						"TL",
						"TN",
						"TO",
						"TR",
						"TT",
						"TV",
						"TW",
						"TZ",
						"UA",
						"UG",
						"UY",
						"UZ",
						"VC",
						"VE",
						"VN",
						"VU",
						"WS",
						"XK",
						"ZA",
						"ZM",
						"ZW"
					],
					"external_urls": {
						"spotify": "https://open.spotify.com/album/5BWl0bB1q0TqyFmkBEupZy"
					},
					"href": "https://api.spotify.com/v1/albums/5BWl0bB1q0TqyFmkBEupZy",
					"id": "5BWl0bB1q0TqyFmkBEupZy",
					"images": [
						{
							"height": 640,
							"url": "https://i.scdn.co/image/ab67616d0000b27396ab64f52273635308b6bf27",
							"width": 640
						},
						{
							"height": 300,
							"url": "https://i.scdn.co/image/ab67616d00001e0296ab64f52273635308b6bf27",
							"width": 300
						},
						{
							"height": 64,
							"url": "https://i.scdn.co/image/ab67616d0000485196ab64f52273635308b6bf27",
							"width": 64
						}
					],
					"name": "Hounds Of Love",
					"release_date": "1985",
					"release_date_precision": "year",
					"total_tracks": 12,
					"type": "album",
					"uri": "spotify:album:5BWl0bB1q0TqyFmkBEupZy"
				},
				"artists": [
					{
						"external_urls": {
							"spotify": "https://open.spotify.com/artist/1aSxMhuvixZ8h9dK9jIDwL"
						},
						"href": "https://api.spotify.com/v1/artists/1aSxMhuvixZ8h9dK9jIDwL",
						"id": "1aSxMhuvixZ8h9dK9jIDwL",
						"name": "Kate Bush",
						"type": "artist",
						"uri": "spotify:artist:1aSxMhuvixZ8h9dK9jIDwL"
					}
				],
				"available_markets": [
					"AD",
					"AE",
					"AG",
					"AL",
					"AM",
					"AO",
					"AR",
					"AT",
					"AU",
					"AZ",
					"BA",
					"BB",
					"BD",
					"BE",
					"BF",
					"BG",
					"BH",
					"BI",
					"BJ",
					"BN",
					"BO",
					"BR",
					"BS",
					"BT",
					"BW",
					"BY",
					"BZ",
					"CD",
					"CG",
					"CH",
					"CI",
					"CL",
					"CM",
					"CO",
					"CR",
					"CV",
					"CW",
					"CY",
					"CZ",
					"DE",
					"DJ",
					"DK",
					"DM",
					"DO",
					"DZ",
					"EC",
					"EE",
					"EG",
					"ES",
					"FI",
					"FJ",
					"FM",
					"FR",
					"GA",
					"GB",
					"GD",
					"GE",
					"GH",
					"GM",
					"GN",
					"GQ",
					"GR",
					"GT",
					"GW",
					"GY",
					"HK",
					"HN",
					"HR",
					"HT",
					"HU",
					"ID",
					"IE",
					"IL",
					"IN",
					"IQ",
					"IS",
					"IT",
					"JM",
					"JO",
					"JP",
					"KE",
					"KG",
					"KH",
					"KI",
					"KM",
					"KN",
					"KR",
					"KW",
					"KZ",
					"LA",
					"LB",
					"LC",
					"LI",
					"LK",
					"LR",
					"LS",
					"LT",
					"LU",
					"LV",
					"LY",
					"MA",
					"MC",
					"MD",
					"ME",
					"MG",
					"MH",
					"MK",
					"ML",
					"MN",
					"MO",
					"MR",
					"MT",
					"MU",
					"MV",
					"MW",
					"MX",
					"MY",
					"MZ",
					"NA",
					"NE",
					"NG",
					"NI",
					"NL",
					"NO",
					"NP",
					"NR",
					"NZ",
					"OM",
					"PA",
					"PE",
					"PG",
					"PH",
					"PK",
					"PL",
					"PS",
					"PT",
					"PW",
					"PY",
					"QA",
					"RO",
					"RS",
					"RW",
					"SA",
					"SB",
					"SC",
					"SE",
					"SG",
					"SI",
					"SK",
					"SL",
					"SM",
					"SN",
					"SR",
					"ST",
					"SV",
					"SZ",
					"TD",
					"TG",
					"TH",
					"TJ",
					"TL",
					"TN",
					"TO",
					"TR",
					"TT",
					"TV",
					"TW",
					"TZ",
					"UA",
					"UG",
					"UY",
					"UZ",
					"VC",
					"VE",
					"VN",
					"VU",
					"WS",
					"XK",
					"ZA",
					"ZM",
					"ZW"
				],
				"disc_number": 1,
				"duration_ms": 298933,
				"explicit": false,
				"external_ids": {
					"isrc": "GBCNR8500002"
				},
				"external_urls": {
					"spotify": "https://open.spotify.com/track/75FEaRjZTKLhTrFGsfMUXR"
				},
				"href": "https://api.spotify.com/v1/tracks/75FEaRjZTKLhTrFGsfMUXR",
				"id": "75FEaRjZTKLhTrFGsfMUXR",
				"is_local": false,
				"name": "Running Up That Hill (A Deal With God)",
				"popularity": 86,
				"preview_url": "https://p.scdn.co/mp3-preview/16386d8d6335a6d86f6baae3e49d8cc9135485c2?cid=774b29d4f13844c495f206cafdad9c86",
				"track_number": 1,
				"type": "track",
				"uri": "spotify:track:75FEaRjZTKLhTrFGsfMUXR"
			},
			{
				"album": {
					"album_type": "album",
					"artists": [
						{
							"external_urls": {
								"spotify": "https://open.spotify.com/artist/1aSxMhuvixZ8h9dK9jIDwL"
							},
							"href": "https://api.spotify.com/v1/artists/1aSxMhuvixZ8h9dK9jIDwL",
							"id": "1aSxMhuvixZ8h9dK9jIDwL",
							"name": "Kate Bush",
							"type": "artist",
							"uri": "spotify:artist:1aSxMhuvixZ8h9dK9jIDwL"
						}
					],
					"available_markets": [
						"AD",
						"AE",
						"AG",
						"AL",
						"AM",
						"AO",
						"AR",
						"AT",
						"AU",
						"AZ",
						"BA",
						"BB",
						"BD",
						"BE",
						"BF",
						"BG",
						"BH",
						"BI",
						"BJ",
						"BN",
						"BO",
						"BR",
						"BS",
						"BT",
						"BW",
						"BY",
						"BZ",
						"CA",
						"CD",
						"CG",
						"CH",
						"CI",
						"CL",
						"CM",
						"CO",
						"CR",
						"CV",
						"CW",
						"CY",
						"CZ",
						"DE",
						"DJ",
						"DK",
						"DM",
						"DO",
						"DZ",
						"EC",
						"EE",
						"EG",
						"ES",
						"FI",
						"FJ",
						"FM",
						"FR",
						"GA",
						"GB",
						"GD",
						"GE",
						"GH",
						"GM",
						"GN",
						"GQ",
						"GR",
						"GT",
						"GW",
						"GY",
						"HK",
						"HN",
						"HR",
						"HT",
						"HU",
						"ID",
						"IE",
						"IL",
						"IN",
						"IQ",
						"IS",
						"IT",
						"JM",
						"JO",
						"JP",
						"KE",
						"KG",
						"KH",
						"KI",
						"KM",
						"KN",
						"KR",
						"KW",
						"KZ",
						"LA",
						"LB",
						"LC",
						"LI",
						"LK",
						"LR",
						"LS",
						"LT",
						"LU",
						"LV",
						"LY",
						"MA",
						"MC",
						"MD",
						"ME",
						"MG",
						"MH",
						"MK",
						"ML",
						"MN",
						"MO",
						"MR",
						"MT",
						"MU",
						"MV",
						"MW",
						"MX",
						"MY",
						"MZ",
						"NA",
						"NE",
						"NG",
						"NI",
						"NL",
						"NO",
						"NP",
						"NR",
						"NZ",
						"OM",
						"PA",
						"PE",
						"PG",
						"PH",
						"PK",
						"PL",
						"PS",
						"PT",
						"PW",
						"PY",
						"QA",
						"RO",
						"RS",
						"RW",
						"SA",
						"SB",
						"SC",
						"SE",
						"SG",
						"SI",
						"SK",
						"SL",
						"SM",
						"SN",
						"SR",
						"ST",
						"SV",
						"SZ",
						"TD",
						"TG",
						"TH",
						"TJ",
						"TL",
						"TN",
						"TO",
						"TR",
						"TT",
						"TV",
						"TW",
						"TZ",
						"UA",
						"UG",
						"US",
						"UY",
						"UZ",
						"VC",
						"VE",
						"VN",
						"VU",
						"WS",
						"XK",
						"ZA",
						"ZM",
						"ZW"
					],
					"external_urls": {
						"spotify": "https://open.spotify.com/album/3OYnManu1Nlxnw9OMng7BH"
					},
					"href": "https://api.spotify.com/v1/albums/3OYnManu1Nlxnw9OMng7BH",
					"id": "3OYnManu1Nlxnw9OMng7BH",
					"images": [
						{
							"height": 640,
							"url": "https://i.scdn.co/image/ab67616d0000b2735c390e413e27798edd4d18b4",
							"width": 640
						},
						{
							"height": 300,
							"url": "https://i.scdn.co/image/ab67616d00001e025c390e413e27798edd4d18b4",
							"width": 300
						},
						{
							"height": 64,
							"url": "https://i.scdn.co/image/ab67616d000048515c390e413e27798edd4d18b4",
							"width": 64
						}
					],
					"name": "Hounds of Love (2018 Remaster)",
					"release_date": "1985-09-16",
					"release_date_precision": "day",
					"total_tracks": 12,
					"type": "album",
					"uri": "spotify:album:3OYnManu1Nlxnw9OMng7BH"
				},
				"artists": [
					{
						"external_urls": {
							"spotify": "https://open.spotify.com/artist/1aSxMhuvixZ8h9dK9jIDwL"
						},
						"href": "https://api.spotify.com/v1/artists/1aSxMhuvixZ8h9dK9jIDwL",
						"id": "1aSxMhuvixZ8h9dK9jIDwL",
						"name": "Kate Bush",
						"type": "artist",
						"uri": "spotify:artist:1aSxMhuvixZ8h9dK9jIDwL"
					}
				],
				"available_markets": [
					"AD",
					"AE",
					"AG",
					"AL",
					"AM",
					"AO",
					"AR",
					"AT",
					"AU",
					"AZ",
					"BA",
					"BB",
					"BD",
					"BE",
					"BF",
					"BG",
					"BH",
					"BI",
					"BJ",
					"BN",
					"BO",
					"BR",
					"BS",
					"BT",
					"BW",
					"BY",
					"BZ",
					"CA",
					"CD",
					"CG",
					"CH",
					"CI",
					"CL",
					"CM",
					"CO",
					"CR",
					"CV",
					"CW",
					"CY",
					"CZ",
					"DE",
					"DJ",
					"DK",
					"DM",
					"DO",
					"DZ",
					"EC",
					"EE",
					"EG",
					"ES",
					"FI",
					"FJ",
					"FM",
					"FR",
					"GA",
					"GB",
					"GD",
					"GE",
					"GH",
					"GM",
					"GN",
					"GQ",
					"GR",
					"GT",
					"GW",
					"GY",
					"HK",
					"HN",
					"HR",
					"HT",
					"HU",
					"ID",
					"IE",
					"IL",
					"IN",
					"IQ",
					"IS",
					"IT",
					"JM",
					"JO",
					"JP",
					"KE",
					"KG",
					"KH",
					"KI",
					"KM",
					"KN",
					"KR",
					"KW",
					"KZ",
					"LA",
					"LB",
					"LC",
					"LI",
					"LK",
					"LR",
					"LS",
					"LT",
					"LU",
					"LV",
					"LY",
					"MA",
					"MC",
					"MD",
					"ME",
					"MG",
					"MH",
					"MK",
					"ML",
					"MN",
					"MO",
					"MR",
					"MT",
					"MU",
					"MV",
					"MW",
					"MX",
					"MY",
					"MZ",
					"NA",
					"NE",
					"NG",
					"NI",
					"NL",
					"NO",
					"NP",
					"NR",
					"NZ",
					"OM",
					"PA",
					"PE",
					"PG",
					"PH",
					"PK",
					"PL",
					"PS",
					"PT",
					"PW",
					"PY",
					"QA",
					"RO",
					"RS",
					"RW",
					"SA",
					"SB",
					"SC",
					"SE",
					"SG",
					"SI",
					"SK",
					"SL",
					"SM",
					"SN",
					"SR",
					"ST",
					"SV",
					"SZ",
					"TD",
					"TG",
					"TH",
					"TJ",
					"TL",
					"TN",
					"TO",
					"TR",
					"TT",
					"TV",
					"TW",
					"TZ",
					"UA",
					"UG",
					"US",
					"UY",
					"UZ",
					"VC",
					"VE",
					"VN",
					"VU",
					"WS",
					"XK",
					"ZA",
					"ZM",
					"ZW"
				],
				"disc_number": 1,
				"duration_ms": 300840,
				"explicit": false,
				"external_ids": {
					"isrc": "GBAYE1800884"
				},
				"external_urls": {
					"spotify": "https://open.spotify.com/track/29d0nY7TzCoi22XBqDQkiP"
				},
				"href": "https://api.spotify.com/v1/tracks/29d0nY7TzCoi22XBqDQkiP",
				"id": "29d0nY7TzCoi22XBqDQkiP",
				"is_local": false,
				"name": "Running Up That Hill (A Deal With God) - 2018 Remaster",
				"popularity": 82,
				"preview_url": "https://p.scdn.co/mp3-preview/9f110dbdde66d0a4f3151a67dab5b1b61d6770c1?cid=774b29d4f13844c495f206cafdad9c86",
				"track_number": 1,
				"type": "track",
				"uri": "spotify:track:29d0nY7TzCoi22XBqDQkiP"
			},
			{
				"album": {
					"album_type": "compilation",
					"artists": [
						{
							"external_urls": {
								"spotify": "https://open.spotify.com/artist/1aSxMhuvixZ8h9dK9jIDwL"
							},
							"href": "https://api.spotify.com/v1/artists/1aSxMhuvixZ8h9dK9jIDwL",
							"id": "1aSxMhuvixZ8h9dK9jIDwL",
							"name": "Kate Bush",
							"type": "artist",
							"uri": "spotify:artist:1aSxMhuvixZ8h9dK9jIDwL"
						}
					],
					"available_markets": [
						"AD",
						"AE",
						"AG",
						"AL",
						"AM",
						"AO",
						"AR",
						"AT",
						"AU",
						"AZ",
						"BA",
						"BB",
						"BD",
						"BE",
						"BF",
						"BG",
						"BH",
						"BI",
						"BJ",
						"BN",
						"BO",
						"BR",
						"BS",
						"BT",
						"BW",
						"BY",
						"BZ",
						"CD",
						"CG",
						"CH",
						"CI",
						"CL",
						"CM",
						"CO",
						"CR",
						"CV",
						"CW",
						"CY",
						"CZ",
						"DE",
						"DJ",
						"DK",
						"DM",
						"DO",
						"DZ",
						"EC",
						"EE",
						"EG",
						"ES",
						"FI",
						"FJ",
						"FM",
						"FR",
						"GA",
						"GB",
						"GD",
						"GE",
						"GH",
						"GM",
						"GN",
						"GQ",
						"GR",
						"GT",
						"GW",
						"GY",
						"HK",
						"HN",
						"HR",
						"HT",
						"HU",
						"ID",
						"IE",
						"IL",
						"IN",
						"IQ",
						"IS",
						"IT",
						"JM",
						"JO",
						"JP",
						"KE",
						"KG",
						"KH",
						"KI",
						"KM",
						"KN",
						"KR",
						"KW",
						"KZ",
						"LA",
						"LB",
						"LC",
						"LI",
						"LK",
						"LR",
						"LS",
						"LT",
						"LU",
						"LV",
						"LY",
						"MA",
						"MC",
						"MD",
						"ME",
						"MG",
						"MH",
						"MK",
						"ML",
						"MN",
						"MO",
						"MR",
						"MT",
						"MU",
						"MV",
						"MW",
						"MX",
						"MY",
						"MZ",
						"NA",
						"NE",
						"NG",
						"NI",
						"NL",
						"NO",
						"NP",
						"NR",
						"NZ",
						"OM",
						"PA",
						"PE",
						"PG",
						"PH",
						"PK",
						"PL",
						"PS",
						"PT",
						"PW",
						"PY",
						"QA",
						"RO",
						"RS",
						"RW",
						"SA",
						"SB",
						"SC",
						"SE",
						"SG",
						"SI",
						"SK",
						"SL",
						"SM",
						"SN",
						"SR",
						"ST",
						"SV",
						"SZ",
						"TD",
						"TG",
						"TH",
						"TJ",
						"TL",
						"TN",
						"TO",
						"TR",
						"TT",
						"TV",
						"TW",
						"TZ",
						"UA",
						"UG",
						"UY",
						"UZ",
						"VC",
						"VE",
						"VN",
						"VU",
						"WS",
						"XK",
						"ZA",
						"ZM",
						"ZW"
					],
					"external_urls": {
						"spotify": "https://open.spotify.com/album/0o7IgUEAoOGzsolQgLpnTK"
					},
					"href": "https://api.spotify.com/v1/albums/0o7IgUEAoOGzsolQgLpnTK",
					"id": "0o7IgUEAoOGzsolQgLpnTK",
					"images": [
						{
							"height": 640,
							"url": "https://i.scdn.co/image/ab67616d0000b273a8a3f129a6faaa03823fb2ce",
							"width": 640
						},
						{
							"height": 300,
							"url": "https://i.scdn.co/image/ab67616d00001e02a8a3f129a6faaa03823fb2ce",
							"width": 300
						},
						{
							"height": 64,
							"url": "https://i.scdn.co/image/ab67616d00004851a8a3f129a6faaa03823fb2ce",
							"width": 64
						}
					],
					"name": "The Whole Story",
					"release_date": "1986-11-10",
					"release_date_precision": "day",
					"total_tracks": 12,
					"type": "album",
					"uri": "spotify:album:0o7IgUEAoOGzsolQgLpnTK"
				},
				"artists": [
					{
						"external_urls": {
							"spotify": "https://open.spotify.com/artist/1aSxMhuvixZ8h9dK9jIDwL"
						},
						"href": "https://api.spotify.com/v1/artists/1aSxMhuvixZ8h9dK9jIDwL",
						"id": "1aSxMhuvixZ8h9dK9jIDwL",
						"name": "Kate Bush",
						"type": "artist",
						"uri": "spotify:artist:1aSxMhuvixZ8h9dK9jIDwL"
					}
				],
				"available_markets": [
					"AD",
					"AE",
					"AG",
					"AL",
					"AM",
					"AO",
					"AR",
					"AT",
					"AU",
					"AZ",
					"BA",
					"BB",
					"BD",
					"BE",
					"BF",
					"BG",
					"BH",
					"BI",
					"BJ",
					"BN",
					"BO",
					"BR",
					"BS",
					"BT",
					"BW",
					"BY",
					"BZ",
					"CD",
					"CG",
					"CH",
					"CI",
					"CL",
					"CM",
					"CO",
					"CR",
					"CV",
					"CW",
					"CY",
					"CZ",
					"DE",
					"DJ",
					"DK",
					"DM",
					"DO",
					"DZ",
					"EC",
					"EE",
					"EG",
					"ES",
					"FI",
					"FJ",
					"FM",
					"FR",
					"GA",
					"GB",
					"GD",
					"GE",
					"GH",
					"GM",
					"GN",
					"GQ",
					"GR",
					"GT",
					"GW",
					"GY",
					"HK",
					"HN",
					"HR",
					"HT",
					"HU",
					"ID",
					"IE",
					"IL",
					"IN",
					"IQ",
					"IS",
					"IT",
					"JM",
					"JO",
					"JP",
					"KE",
					"KG",
					"KH",
					"KI",
					"KM",
					"KN",
					"KR",
					"KW",
					"KZ",
					"LA",
					"LB",
					"LC",
					"LI",
					"LK",
					"LR",
					"LS",
					"LT",
					"LU",
					"LV",
					"LY",
					"MA",
					"MC",
					"MD",
					"ME",
					"MG",
					"MH",
					"MK",
					"ML",
					"MN",
					"MO",
					"MR",
					"MT",
					"MU",
					"MV",
					"MW",
					"MX",
					"MY",
					"MZ",
					"NA",
					"NE",
					"NG",
					"NI",
					"NL",
					"NO",
					"NP",
					"NR",
					"NZ",
					"OM",
					"PA",
					"PE",
					"PG",
					"PH",
					"PK",
					"PL",
					"PS",
					"PT",
					"PW",
					"PY",
					"QA",
					"RO",
					"RS",
					"RW",
					"SA",
					"SB",
					"SC",
					"SE",
					"SG",
					"SI",
					"SK",
					"SL",
					"SM",
					"SN",
					"SR",
					"ST",
					"SV",
					"SZ",
					"TD",
					"TG",
					"TH",
					"TJ",
					"TL",
					"TN",
					"TO",
					"TR",
					"TT",
					"TV",
					"TW",
					"TZ",
					"UA",
					"UG",
					"UY",
					"UZ",
					"VC",
					"VE",
					"VN",
					"VU",
					"WS",
					"XK",
					"ZA",
					"ZM",
					"ZW"
				],
				"disc_number": 1,
				"duration_ms": 298933,
				"explicit": false,
				"external_ids": {
					"isrc": "GBCNR8500002"
				},
				"external_urls": {
					"spotify": "https://open.spotify.com/track/1TOme860eWLYhQCkSPpXmE"
				},
				"href": "https://api.spotify.com/v1/tracks/1TOme860eWLYhQCkSPpXmE",
				"id": "1TOme860eWLYhQCkSPpXmE",
				"is_local": false,
				"name": "Running Up That Hill (A Deal With God)",
				"popularity": 49,
				"preview_url": "https://p.scdn.co/mp3-preview/16386d8d6335a6d86f6baae3e49d8cc9135485c2?cid=774b29d4f13844c495f206cafdad9c86",
				"track_number": 7,
				"type": "track",
				"uri": "spotify:track:1TOme860eWLYhQCkSPpXmE"
			}
		],
		"limit": 3,
		"next": "https://api.spotify.com/v1/search?query=track%3Arunning+up+that+hill+artist%3Akate+bush&type=track&locale=en-US%2Cen%3Bq%3D0.5&offset=3&limit=3",
		"offset": 0,
		"previous": null,
		"total": 371
	}
}